\relax 
\citation{kwiatkowska2011realtime}
\citation{kwiatkowska2009prism}
\citation{stewart1994introduction}
\@writefile{toc}{\contentsline {section}{\numberline {1}Introduction}{2}}
\@writefile{toc}{\contentsline {section}{\numberline {2}Probability in clock guards}{2}}
\@writefile{toc}{\contentsline {section}{\numberline {3}Actions}{2}}
\citation{rataj2008translator,rataj2009flexible}
\@writefile{toc}{\contentsline {section}{\numberline {4}Properties}{3}}
\@writefile{toc}{\contentsline {section}{\numberline {5}Subclasses}{3}}
\@writefile{toc}{\contentsline {subsection}{\numberline {5.1}Subclass A}{3}}
\bibdata{../../../doc/mc}
\bibcite{kwiatkowska2009prism}{{1}{2009}{{Kwiatkowska et~al.}}{{Kwiatkowska, Norman, and Parker}}}
\bibcite{kwiatkowska2011realtime}{{2}{2011}{{Kwiatkowska et~al.}}{{Kwiatkowska, Norman, and Parker}}}
\@writefile{toc}{\contentsline {subsection}{\numberline {5.2}Example}{4}}
\@writefile{lof}{\contentsline {figure}{\numberline {1}{\ignorespaces An example PTA.}}{5}}
\newlabel{fig:example-pta}{{1}{5}}
\bibcite{rataj2009flexible}{{3}{2009}{{Rataj}}{{}}}
\bibcite{rataj2008translator}{{4}{2008}{{Rataj et~al.}}{{Rataj, Wozna, and Zbrzezny}}}
\bibcite{stewart1994introduction}{{5}{1994}{{Stewart}}{{}}}
\bibstyle{plainnat}
\@writefile{lof}{\contentsline {figure}{\numberline {2}{\ignorespaces Example bounding invariants.}}{6}}
\newlabel{fig:example-invariants}{{2}{6}}
